<define-tag pagetitle>DLA-2940-1 linux</define-tag>
<define-tag report_date>2022-3-9</define-tag>
<define-tag secrefs>CVE-2021-3640 CVE-2021-3752 CVE-2021-4002 CVE-2021-4083 CVE-2021-4155 CVE-2021-4202 CVE-2021-28711 CVE-2021-28712 CVE-2021-28713 CVE-2021-28714 CVE-2021-28715 CVE-2021-29264 CVE-2021-33033 CVE-2021-39685 CVE-2021-39686 CVE-2021-39698 CVE-2021-39714 CVE-2021-43976 CVE-2021-45095 CVE-2022-0001 CVE-2022-0002 CVE-2022-0330 CVE-2022-0435 CVE-2022-0487 CVE-2022-0492 CVE-2022-0617 CVE-2022-24448 CVE-2022-25258 CVE-2022-25375 Bug#990411</define-tag>
<define-tag packages>linux</define-tag>
<define-tag isvulnerable>yes</define-tag>
<define-tag fixed>yes</define-tag>
<define-tag fixed-section>no</define-tag>

#use wml::debian::security

