<define-tag pagetitle>DSA-4863-1 nodejs</define-tag>
<define-tag report_date>2021-2-24</define-tag>
<define-tag secrefs>CVE-2021-22883 CVE-2021-22884</define-tag>
<define-tag packages>nodejs</define-tag>
<define-tag isvulnerable>yes</define-tag>
<define-tag fixed>yes</define-tag>
<define-tag fixed-section>no</define-tag>

#use wml::debian::security



</dl>
