<define-tag pagetitle>DSA-4868-1 flatpak</define-tag>
<define-tag report_date>2021-3-12</define-tag>
<define-tag secrefs>CVE-2021-21381</define-tag>
<define-tag packages>flatpak</define-tag>
<define-tag isvulnerable>yes</define-tag>
<define-tag fixed>yes</define-tag>
<define-tag fixed-section>no</define-tag>

#use wml::debian::security



</dl>
