<define-tag pagetitle>DSA-4674-1 roundcube</define-tag>
<define-tag report_date>2020-5-05</define-tag>
<define-tag secrefs>CVE-2020-12625 CVE-2020-12626 Bug#959140 Bug#959142</define-tag>
<define-tag packages>roundcube</define-tag>
<define-tag isvulnerable>yes</define-tag>
<define-tag fixed>yes</define-tag>
<define-tag fixed-section>no</define-tag>

#use wml::debian::security



</dl>
