<define-tag pagetitle>DSA-4773-1 yaws</define-tag>
<define-tag report_date>2020-10-16</define-tag>
<define-tag secrefs>CVE-2020-24379 CVE-2020-24916</define-tag>
<define-tag packages>yaws</define-tag>
<define-tag isvulnerable>yes</define-tag>
<define-tag fixed>yes</define-tag>
<define-tag fixed-section>no</define-tag>

#use wml::debian::security



</dl>
