<define-tag pagetitle>DSA-4706-1 drupal7</define-tag>
<define-tag report_date>2020-6-18</define-tag>
<define-tag secrefs>CVE-2020-13663</define-tag>
<define-tag packages>drupal7</define-tag>
<define-tag isvulnerable>yes</define-tag>
<define-tag fixed>yes</define-tag>
<define-tag fixed-section>no</define-tag>

#use wml::debian::security



</dl>
