<define-tag pagetitle>DLA-2668-1 samba</define-tag>
<define-tag report_date>2021-05-31</define-tag>
<define-tag secrefs>CVE-2019-10218 CVE-2019-14833 CVE-2019-14847 CVE-2019-14861 CVE-2019-14870 CVE-2019-14902 CVE-2019-14907 CVE-2021-20254 Bug#946786</define-tag>
<define-tag packages>samba</define-tag>
<define-tag isvulnerable>yes</define-tag>
<define-tag fixed>yes</define-tag>
<define-tag fixed-section>no</define-tag>

#use wml::debian::security

