    1	Aaron M. Ucko 	ucko 
    2	Abhijith PA 	abhijith 
    3	Adam Borowski 	kilobyte 
    4	Adam D. Barratt 	adsb 
    5	Adam Majer 	adamm 
    6	Adam Powell 	hazelsct 
    7	Adrian Bunk 	bunk 
    8	Adrian Perez 	blackxored 
    9	Adriano Rafael Gomes 	adrianorg 
   10	Afif Elghraoui 	afif 
   11	Agustin Henze 	tin 
   12	Agustín Martín Domingo 	agmartin 
   13	Aigars Mahinovs 	aigarius 
   14	Akira Ohashi 	bg66 
   15	Akira Yamada 	akira 
   16	Alan Woodland 	awoodland 
   17	Alastair McKinstry 	mckinstry 
   18	Alban Vidal 	zordhak 
   19	Albert Huang 	ash 
   20	Alberto Garcia 	berto 
   21	Alberto Gonzalez Iniesta 	agi 
   22	Albin Tonnerre 	lutin 
   23	Alejandro Garrido Mota 	alejandro 
   24	Alen Zekulic 	azekulic 
   25	Alessandro Ghedini 	ghedo 
   26	Alessio Treglia 	alessio 
   27	Alex Muntada 	alexm 
   28	Alex Pennace 	alexp 
   29	Alexander Chernyakhovsky 	achernya 
   30	Alexander GQ Gerasiov 	gq 
   31	Alexander List 	alex 
   32	Alexander Sack 	asac 
   33	Alexander Wirt 	formorer 
   34	Alexander Zangerl 	az 
   35	Alexandre Delanoë 	anoe 
   36	Alexandre Mestiashvili 	mestia 
   37	Alexandre Viau 	aviau 
   38	Alexei Nikolov 	clown 
   39	Allison Randal 	wendar 
   40	Aloïs Micard 	creekorful 
   41	Amaya Rodrigo Sastre 	amaya 
   42	Amos Waterland 	apw 
   43	Ana Beatriz Guerrero López 	ana 
   44	Ana Carolina Comandulli 	caroll 
   45	Ana Custura 	acute 
   46	Anders Hammarquist 	iko 
   47	Andre Luis Lopes 	andrelop 
   48	Andrea Capriotti 	capriott 
   49	Andrea Colangelo 	warp10 
   50	Andrea Mennucci 	mennucc1 
   51	Andreas B. Mundt 	andi 
   52	Andreas Barth 	aba 
   53	Andreas Beckmann 	anbe 
   54	Andreas Boll 	aboll 
   55	Andreas E. Bombe 	aeb 
   56	Andreas Franzen 	anfra 
   57	Andreas Henriksson 	ah 
   58	Andreas Metzler 	ametzler 
   59	Andreas Rönnquist 	gusnan 
   60	Andreas Tille 	tille 
   61	Andree Leidenfrost 	andree 
   62	Andrej Shadura 	andrewsh 
   63	Andres Salomon 	dilinger 
   64	Andrew Lee 	ajqlee 
   65	Andrew Martin Adrian Cater 	amacater 
   66	Andrew McMillan 	awm 
   67	Andrew Mitchell 	ajmitch 
   68	Andrew Pollock 	apollock 
   69	Andrew Starr-Bochicchio 	asb 
   70	Andrey Rahmatullin 	wrar 
   71	Andrius Merkys 	merkys 
   72	Andrés Roldán 	aroldan 
   73	Andy Li 	andyli 
   74	Andy Simpkins 	rattusrattus 
   75	Angel Abad 	angel 
   76	Angel Ramos 	seamus 
   77	Angus Lees 	gus 
   78	Anibal Monsalve Salazar 	anibal 
   79	Anselm Lingnau 	lingnau 
   80	Ansgar 	ansgar 
   81	Anthony Fok 	foka 
   82	Anthony Towns 	ajt 
   83	Antoine Beaupré 	anarcat 
   84	Anton Gladky 	gladk 
   85	Anton Zinoviev 	zinoviev 
   86	Antonin Kral 	krala 
   87	Antonio Radici 	antonio 
   88	Antonio Terceiro 	terceiro 
   89	Anuradha Weeraman 	anuradha 
   90	Apollon Oikonomopoulos 	apoikos 
   91	Ardo van Rangelrooij 	ardo 
   92	Ari Pollak 	ari 
   93	Arnaud Fontaine 	arnau 
   94	Arno Töll 	arno 
   95	Aron Xu 	aron 
   96	Arthur de Jong 	adejong 
   97	Arto Jantunen 	viiru 
   98	Arturo Borrero González 	arturo 
   99	Asheesh Laroia 	paulproteus 
  100	Asias He 	asias 
  101	Atsushi Kamoshida 	kamop 
  102	Attila Szalay 	sasa 
  103	Aurelien Jarno 	aurel32 
  104	Aurélien Couderc 	coucouf 
  105	Axel Beckert 	abe 
  106	Balasankar Chelamattathu 	balasankarc 
  107	Balint Reczey 	rbalint 
  108	Baptiste Beauplat 	lyknode 
  109	Barak A. Pearlmutter 	bap 
  110	Barry deFreese 	bdefreese 
  111	Bart Martens 	bartm 
  112	Bartosz Fenski 	fenio 
  113	Bas Wijnen 	wijnen 
  114	Bas Zoetekouw 	bas 
  115	Bastian Blank 	waldi 
  116	Bastian Germann 	bage 
  117	Bastian Venthur 	venthur 
  118	Bastien Roucariès 	rouca 
  119	Bdale Garbee 	bdale 
  120	Ben Armstrong 	synrg 
  121	Ben Burton 	bab 
  122	Ben Finney 	bignose 
  123	Ben Hutchings 	benh 
  124	Benda Xu 	orv 
  125	Benjamin Barenblat 	bbaren 
  126	Benjamin Drung 	bdrung 
  127	Benjamin Hill 	mako 
  128	Benjamin Mesing 	ben 
  129	Bernd Schumacher 	bs 
  130	Bernd Zeimetz 	bzed 
  131	Bernhard R. Link 	brlink 
  132	Bernhard Schmidt 	berni 
  133	Bertrand Marc 	bmarc 
  134	Bill Allombert 	ballombe 
  135	Birger Schacht 	birger 
  136	Boris Pek 	tehnick 
  137	Boyuan Yang 	byang 
  138	Bradley Bosch 	brad 
  139	Branden Robinson 	branden 
  140	Brendan O'Dea 	bod 
  141	Breno Leitao 	leitao 
  142	Brian Gupta 	bgupta 
  143	Brian May 	bam 
  144	Brian Pellin 	bpellin 
  145	Brian Ristuccia 	brianr 
  146	Brian Thomason 	iamfuzz 
  147	Brian White 	bcwhite 
  148	Brice Goglin 	bgoglin 
  149	Bruno Kleinert 	fuddl 
  150	Cameron Dale 	camrdale 
  151	Camm Maguire 	camm 
  152	Carl Chenet 	chaica 
  153	Carl Worth 	cworth 
  154	Carlo U. Segre 	segre 
  155	Carlos Laviola 	claviola 
  156	Carsten Hey 	carsten 
  157	Carsten Leonhardt 	leo 
  158	Carsten Schoenert 	tijuca 
  159	ChangZhuo Chen 	czchen 
  160	Changwoo Ryu 	cwryu 
  161	Charles Plessy 	plessy 
  162	Chen Baozi 	baozich 
  163	Chris Boot 	bootc 
  164	Chris Boyle 	cmb 
  165	Chris Halls 	halls 
  166	Chris Lamb 	lamby 
  167	Christian Bayle 	bayle 
  168	Christian Ehrhardt 	paelzer 
  169	Christian Hofstaedtler 	zeha 
  170	Christian Hudon 	chrish 
  171	Christian Kastner 	ckk 
  172	Christian Marillat 	marillat 
  173	Christian T. Steigies 	cts 
  174	Christine Christine Spang 	christine 
  175	Christoph Berg 	myon 
  176	Christoph Biedl 	cbiedl 
  177	Christoph Egger 	christoph 
  178	Christoph Göhre 	gris 
  179	Christoph Haas 	haas 
  180	Christoph Martin 	chrism 
  181	Christopher Knadle 	krait 
  182	Christopher L. Cheney 	ccheney 
  183	Christopher Lawrence 	lawrencc 
  184	Christopher Stuart Hoskin 	mans0954 
  185	Christopher Taylor 	ctaylor 
  186	Christos Trochalakis 	ctrochalakis 
  187	Chrysostomos Nanakos 	cnanakos 
  188	Chuan-kai Lin 	cklin 
  189	Claire Connelly 	cmc 
  190	Clint Adams 	clint 
  191	Clint Byrum 	spamaps 
  192	Clément Hermann 	nodens 
  193	Colin Watson 	cjwatson 
  194	Cord Beermann 	cord 
  195	Craig Sanders 	cas 
  196	Craig Small 	csmall 
  197	Cyril Bouthors 	cyb 
  198	Cyril Brulebois 	kibi 
  199	Cédric Boutillier 	boutil 
  200	Cédric Delfosse 	cedric 
  201	Daisuke Higuchi 	dai 
  202	Dale Martin 	dmartin 
  203	Damyan Ivanov 	dmn 
  204	Danai Sae-Han 	danai 
  205	Daniel Baumann 	daniel 
  206	Daniel Echeverry 	epsilon 
  207	Daniel Glassey 	wdg 
  208	Daniel Kahn Gillmor 	dkg 
  209	Daniel Lange 	dlange 
  210	Daniel Leidert 	dleidert 
  211	Daniel Lenharo de Souza 	lenharo 
  212	Daniel Schepler 	schepler 
  213	Daniel Silverstone 	dsilvers 
  214	Daniel Swarbrick 	dswarbrick 
  215	Daniele Tricoli 	eriol 
  216	Dann Frazier 	dannf 
  217	Dario Minnucci 	midget 
  218	Dariusz Dwornikowski 	darek 
  219	Dave Beckett 	dajobe 
  220	Dave Holland 	dave 
  221	David Bremner 	bremner 
  222	David I. Lehn 	dlehn 
  223	David Kalnischkies 	donkult 
  224	David L. Coe 	davidc 
  225	David Nusinow 	dnusinow 
  226	David Paleino 	dapal 
  227	David Prévot 	taffit 
  228	David Steele 	steele 
  229	David Suárez Rodríguez 	deiv 
  230	David Watson 	dwatson 
  231	David Weinehall 	tao 
  232	Davide G.M. Salvetti 	salve 
  233	Davide Puricelli 	evo 
  234	Deepak Tripathi 	deepak 
  235	Denis Barbier 	barbier 
  236	Denis Briand 	denis 
  237	Dennis L. Clark 	dbugger 
  238	Diane Trout 	diane 
  239	Didier 'OdyX' Raboud 	odyx 
  240	Dima Barsky 	dima 
  241	Dima Kogan 	dkogan 
  242	Dimitri Ledkov 	xnox 
  243	Dirk Eddelbuettel 	edd 
  244	Dmitry Borodaenko 	angdraug 
  245	Dmitry Oboukhov 	unera 
  246	Dmitry Shachnev 	mitya57 
  247	Dmitry Smirnov 	onlyjob 
  248	Domenico Andreoli 	cavok 
  249	Dominic Hargreaves 	dom 
  250	Dominik George 	natureshadow 
  251	Dominique Belhachemi 	domibel 
  252	Dominique Dumont 	dod 
  253	Don Armstrong 	don 
  254	Donald Norwood 	donald 
  255	Douglas Andrew Torrance 	dtorrance 
  256	Drake Diedrich 	dld 
  257	Drew Parsons 	dparsons 
  258	Dylan Aïssi 	daissi 
  259	Ean Schuessler 	ean 
  260	Ed Boraas 	ed 
  261	Edelhard Becker 	edelhard 
  262	Eduard Bloch 	blade 
  263	Eduardo Trápani 	mapache 
  264	Edward Betts 	edward 
  265	Eike Sauer 	eike 
  266	Elana Hashman 	ehashman 
  267	Elena Grandi 	valhalla 
  268	Eloy A. Paris 	peloy 
  269	Emanuele Rocca 	ema 
  270	Emfox Zhou 	emfox 
  271	Emilio Pozuelo Monfort 	pochu 
  272	Emmanuel Bourg 	ebourg 
  273	Emmanuel Bouthenot 	kolter 
  274	Emmanuel Kasper Kasprzyk 	manu 
  275	Enrico Zini 	enrico 
  276	Eric Delaunay 	delaunay 
  277	Eric Dorland 	eric 
  278	Eric Evans 	eevans 
  279	Eric Sharkey 	sharkey 
  280	Erich Schubert 	erich 
  281	Erik Schanze 	eriks 
  282	Erik Wenzel 	erik 
  283	Erinn Clark 	erinn 
  284	Eugene V. Lyubimkin 	jackyf 
  285	Eugeniy Meshcheryakov 	eugen 
  286	Evgeni Golov 	evgeni 
  287	Fabian Fagerholm 	fabbe 
  288	Fabian Greffrath 	fabian 
  289	Fabio Augusto De Muzio Tobich 	ftobich 
  290	Fabio Tranchitella 	kobold 
  291	Faidon Liambotis 	paravoid 
  292	Falk Hueffner 	falk 
  293	Fathi Boudra 	fabo 
  294	Federico Ceratto 	federico 
  295	Federico Di Gregorio 	fog 
  296	Felipe Augusto van de Wiel 	faw 
  297	Felipe Sateler 	fsateler 
  298	Felix Geyer 	fgeyer 
  299	Felix Lechner 	lechner 
  300	Ferenc Wágner 	wferi 
  301	Filippo Giunchedi 	filippo 
  302	Filippo Rusconi 	lopippo 
  303	Florian Ernst 	florian 
  304	Florian Hinzmann 	fh 
  305	Florian Lohoff 	flo 
  306	Florian Schlichting 	fsfs 
  307	Florian Weimer 	fw 
  308	Francesca Ciceri 	madamezou 
  309	Francesco Lovergine 	frankie 
  310	Francesco Namuri 	franam 
  311	Francisco Manuel García Claramonte 	francisco 
  312	Francisco Vilmar Cardoso Ruviaro 	vilmar 
  313	Francois Marier 	francois 
  314	Frank Küster 	frank 
  315	Frank Lichtenheld 	djpig 
  316	Frederic Peters 	fpeters 
  317	Fredrik Hallenberg 	hallon 
  318	Free Ekanayaka 	freee 
  319	Frédéric Bonnard 	frediz 
  320	Frédéric-Emmanuel Picca 	picca 
  321	Félix Sipma 	felix 
  322	Gabriel F. T. Gomes 	gabriel 
  323	Gard Spreemann 	gspr 
  324	Gaudenz Steinlin 	gaudenz 
  325	Geert Stappers 	stappers 
  326	Gennaro Oliva 	oliva 
  327	Georg Faerber 	georg 
  328	George Danchev 	danchev 
  329	Georges Khaznadar 	georgesk 
  330	Gerrit Pape 	pape 
  331	Gert Wollny 	gewo 
  332	Giacomo Catenazzi 	cate 
  333	Gianfranco Costamagna 	locutusofborg 
  334	Gilles Filippini 	pini 
  335	Giovani Augusto Ferreira 	giovani 
  336	Giovanni Mascellani 	gio 
  337	Giuseppe Sacco 	eppesuig 
  338	Gleydson Mazioli da Silva 	gleydson 
  339	Goedson Teixeira Paixao 	goedson 
  340	Gonéri Le Bouder 	goneri 
  341	Gordon Ball 	chronitis 
  342	Graham Inggs 	ginggs 
  343	Gregor Herrmann 	gregoa 
  344	Gregory Colpart 	reg 
  345	Guido Guenther 	agx 
  346	Guido Trotter 	ultrotter 
  347	Guilhem Moulin 	guilhem 
  348	Guillem Jover 	guillem 
  349	Gunnar Hjalmarsson 	gunnarhj 
  350	Gunnar Wolf 	gwolf 
  351	Gustavo Franco 	stratus 
  352	Gustavo Noronha 	kov 
  353	Gustavo Panizzo 	gfa 
  354	Guus Sliepen 	guus 
  355	Göran Weinholt 	weinholt 
  356	Gürkan Myczko 	tar 
  357	HAYASHI Kentaro 	kenhys 
  358	Hakan Ardo 	hakan 
  359	Hannes von Haugwitz 	hvhaugwitz 
  360	Hanno Wagner 	wagner 
  361	Hans-Christoph Steiner 	eighthave 
  362	Harlan Lieberman-Berg 	hlieberman 
  363	Harshula Jayasuriya 	harshula 
  364	Hector Garcia 	hector 
  365	Hector Oron 	zumbi 
  366	Heiko Stübner 	mmind 
  367	Helen Faulkner 	helen 
  368	Helge Deller 	deller 
  369	Helmut Grohne 	helmutg 
  370	Henning Glawe 	glaweh 
  371	Henrique de Moraes Holschuh 	hmh 
  372	Henry-Nicolas Tourneur 	hntourne 
  373	Hideki Yamane 	henrich 
  374	Hilko Bengen 	bengen 
  375	Holger Levsen 	holger 
  376	Holger Wansing 	holgerw 
  377	Hubert Chan 	uhoreg 
  378	Hugo Lefeuvre 	hle 
  379	Hwei Sheng Teoh 	hsteoh 
  380	IOhannes m zmölnig 	umlaeute 
  381	Iain Lane 	laney 
  382	Ian Beckwith 	ianb 
  383	Ian Jackson 	iwj 
  384	Ian James Campbell 	ijc 
  385	Ian Wienand 	ianw 
  386	Ilias Tsitsimpis 	iliastsi 
  387	Iustin Pop 	iustin 
  388	Ivan Kohler 	ivan 
  389	Ivo De Decker 	ivodd 
  390	Jaakko Niemi 	liiwi 
  391	Jaime Robles 	jaime 
  392	Jakob Haufe 	sur5r 
  393	Jakub Wilk 	jwilk 
  394	Jaldhar H. Vyas 	jaldhar 
  395	James Bromberger 	jeb 
  396	James Cowgill 	jcowgill 
  397	James Downing Page 	jamespage 
  398	James McCoy 	jamessan 
  399	James Troup 	troup 
  400	James Valleroy 	jvalleroy 
  401	Jamie Wilkinson 	jaq 
  402	Jan Dittberner 	jandd 
  403	Jan Hauke Rahm 	jhr 
  404	Jan Lübbe 	jluebbe 
  405	Jan Niehusmann 	jan 
  406	Jan Wagner 	waja 
  407	Jason Thomas 	jason 
  408	Javier Fernandez-Sanguino Peña 	jfs 
  409	Javier Merino Cacho 	vicho 
  410	Jay Berkenbilt 	qjb 
  411	Jay Bonci 	jaybonci 
  412	Jean Baptiste Favre 	jbfavre 
  413	Jean-Michel Kelbert 	kelbert 
  414	Jean-Michel Vourgère 	nirgal 
  415	Jean-Philippe MENGUAL 	jpmengual 
  416	Jeff Breidenbach 	jab 
  417	Jeff Teunissen 	deek 
  418	Jeffrey Ratcliffe 	jjr 
  419	Jelmer Vernooij 	jelmer 
  420	Jeremy Bicha 	jbicha 
  421	Jeremy Bouse 	jbouse 
  422	Jeremy Lainé 	sharky 
  423	Jeroen Ploemen 	jcfp 
  424	Jeroen van Wolffelaar 	jeroen 
  425	Jerome Charaoui 	lavamind 
  426	Jerome Georges Benoit 	calculus 
  427	Jessica Clarke 	jrtc27 
  428	Jim Meyering 	meyering 
  429	Jimmy Kaplowitz 	jimmy 
  430	Jo Shields 	directhex 
  431	Joachim Breitner 	nomeata 
  432	Joachim Reichel 	reichel 
  433	Joao Eriberto Mota Filho 	eriberto 
  434	Jochen Sprickerhof 	jspricke 
  435	Joel Rosdahl 	joel 
  436	Joerg Jaspert 	joerg 
  437	Johann Felix Soden 	johfel 
  438	Johannes Schauer 	josch 
  439	John Francesco Ferlito 	johnf 
  440	John Goerzen 	jgoerzen 
  441	John H. IV Robinson 	jaqque 
  442	John Leuner 	jewel 
  443	John Lightsey 	lightsey 
  444	John Lines 	jlines 
  445	John Paul Adrian Glaubitz 	glaubitz 
  446	John Sullivan 	johns 
  447	John V. Belmonte 	jbelmonte 
  448	John Wright 	jsw 
  449	Jon Bernard 	jbernard 
  450	Jonas Genannt 	genannt 
  451	Jonas Meurer 	mejo 
  452	Jonas Smedegaard 	js 
  453	Jonathan Bustillos 	jathan 
  454	Jonathan Cristopher Carter 	jcc 
  455	Jonathan Dowland 	jmtd 
  456	Jonathan Marler 	jmarler 
  457	Jonathan McDowell 	noodles 
  458	Jonathan Nieder 	jrnieder 
  459	Jonathan Oxer 	jon 
  460	Jonathan Wiltshire 	jmw 
  461	Jonny Lamb 	jonny 
  462	Joost van Baal 	joostvb 
  463	Jordan Justen 	jljusten 
  464	Jordi Mallach 	jordi 
  465	Jorge Salamero Sanz 	bencer 
  466	Jose Luis Rivas Contreras 	ghostbar 
  467	Jose M. Calhariz 	calhariz 
  468	Jose Parrella 	bureado 
  469	Joseph Nahmias 	jello 
  470	Joshua Kwan 	joshk 
  471	Josip Rodin 	joy 
  472	Josselin Mouette 	joss 
  473	Josué Abarca 	jmaslibre 
  474	Josué Ortega 	josue 
  475	José L. Redrejo Rodríguez 	jredrejo 
  476	Juan Cespedes 	cespedes 
  477	Juan Gregorio Hernando Rivero 	ghe 
  478	Judit Foglszinger 	urbec 
  479	Julian Andres Klode 	jak 
  480	Julian Gilbey 	jdg 
  481	Juliane Friederike Holzt 	jule 
  482	Julien Cristau 	jcristau 
  483	Julien Patriarca 	leatherface 
  484	Julien Puydt 	jpuydt 
  485	Julián Moreno Patiño 	julian 
  486	Junichi Uekawa 	dancer 
  487	Jérémie Corbier 	jcorbier 
  488	Jérémy Bobbio 	lunar 
  489	Jérémy Lal 	kapouer 
  490	Jörgen Hägg 	jh 
  491	Kai Wasserbäch 	curan 
  492	Kai-Chung Yan 	seamlik 
  493	Kamal Mostafa 	kamal 
  494	Kanru Chen 	koster 
  495	Karen M Sandler 	karen 
  496	Kari Pahula 	kaol 
  497	Karsten Merker 	merker 
  498	Kartik Mistry 	kartik 
  499	Kees Cook 	kees 
  500	Keita Maehara 	maehara 
  501	Keith Packard 	keithp 
  502	Keng-Yu Lin 	kengyu 
  503	Kenneth J. Pronovici 	pronovic 
  504	Kevin Coyner 	kcoyner 
  505	Kevin M. Rosenberg 	kmr 
  506	Khalid Aziz 	khalid 
  507	Kilian Krause 	kilian 
  508	Klee Dienes 	klee 
  509	Konstantinos Margaritis 	markos 
  510	Krzysztof Krzyzaniak 	eloy 
  511	Kumar Appaiah 	akumar 
  512	Kunal Mehta 	legoktm 
  513	Kurt Kremitzki 	kkremitzki 
  514	Kurt Roeckx 	kroeckx 
  515	Kyle Robbertze 	paddatrapper 
  516	Kåre Thor Olsen 	kaare 
  517	Lamont Jones 	lamont 
  518	Lars Bahner 	bahner 
  519	Laszlo Kajan 	lkajan 
  520	Laura Arjona Reina 	larjona 
  521	Laurence Lane 	ljlane 
  522	Laurent Bigonville 	bigon 
  523	Lenart Janos 	ocsi 
  524	Leo Costela 	costela 
  525	Lev Lamberov 	dogsleg 
  526	Lionel Elie Mamane 	lmamane 
  527	Lior Kaplan 	kaplan 
  528	Lisa Baron 	jeffity 
  529	Lisandro Damián Nicanor Pérez Meyer 	lisandro 
  530	Loic Dachary 	loic 
  531	Loong Jin Chow 	hyperair 
  532	Louis-Philippe Véronneau 	pollo 
  533	Loïc Minier 	lool 
  534	Luca Boccassi 	bluca 
  535	Luca Bruno 	lucab 
  536	Luca Falavigna 	dktrkranz 
  537	Luca Filipozzi 	lfilipoz 
  538	Lucas Kanashiro 	kanashiro 
  539	Lucas Nussbaum 	lucas 
  540	Luciano Bello 	luciano 
  541	Ludovic Brenta 	lbrenta 
  542	Ludovic Drolez 	ldrolez 
  543	Ludovic Rousseau 	rousseau 
  544	Ludovico Cavedon 	cavedon 
  545	Ludovico Gardenghi 	garden 
  546	Luigi Gangitano 	luigi 
  547	Lukasz Jachowicz 	honey 
  548	Luke Faraone 	lfaraone 
  549	László Böszörményi 	gcs 
  550	M J Ray 	mjr 
  551	Maarten Bernardus Lankhorst 	maarten 
  552	Magnus Holmgren 	holmgren 
  553	Maitland Bottoms 	bottoms 
  554	Makoto OHURA 	ohura 
  555	Manoj Srivastava 	srivasta 
  556	Manuel A. Fernandez Montecelo 	mafm 
  557	Manuel Prinz 	manuel 
  558	Marc Dequènes 	duck 
  559	Marc Haber 	zugschlus 
  560	Marc Singer 	elf 
  561	Marcela Tiznado 	mlt 
  562	Marcelo Jorge Vieira 	metal 
  563	Marcin Kulisz 	kula 
  564	Marcin Owsiany 	porridge 
  565	Marcio de Souza Oliveira 	marciosouza 
  566	Marco Nenciarini 	mnencia 
  567	Marco Presi 	zufus 
  568	Marco d'Itri 	md 
  569	Marcos Fouces 	marcos 
  570	Margarita Manterola 	marga 
  571	Mario Joussen 	joussen 
  572	Mark Brown 	broonie 
  573	Mark Eichin 	eichin 
  574	Mark Hindley 	leepen 
  575	Mark Hymers 	mhy 
  576	Mark Lee Garrett 	lee 
  577	Mark Purcell 	msp 
  578	Mark Shuttleworth 	marks 
  579	Markus Frosch 	lazyfrosch 
  580	Markus Koschany 	apo 
  581	Markus Wanner 	markus 
  582	Martijn van Brummelen 	mvb 
  583	Martin 	debacle 
  584	Martin A. Godisch 	godisch 
  585	Martin Albert 	ma 
  586	Martin Bagge 	brother 
  587	Martin Buck 	mbuck 
  588	Martin F. Krafft 	madduck 
  589	Martin Loschwitz 	madkiss 
  590	Martin Meredith 	mez 
  591	Martin Michlmayr 	tbm 
  592	Martin Pitt 	mpitt 
  593	Martin Quinson 	mquinson 
  594	Martin Wuertele 	maxx 
  595	Martin Zobel-Helas 	zobel 
  596	Martina Ferrari 	tina 
  597	Masahito Omote 	omote 
  598	Masanori Goto 	gotom 
  599	Masayuki Hatta 	mhatta 
  600	Mathias Behrle 	mbehrle 
  601	Mathieu Malaterre 	malat 
  602	Mathieu Parent 	sathieu 
  603	Matt Kraai 	kraai 
  604	Matt Taggart 	taggart 
  605	Matt Zimmerman 	mdz 
  606	Matteo F. Vescovi 	mfv 
  607	Matthew Brown 	mattb 
  608	Matthew Danish 	mrd 
  609	Matthew Garrett 	mjg59 
  610	Matthew Grant 	grantma 
  611	Matthew Palmer 	mpalmer 
  612	Matthew Vernon 	matthew 
  613	Matthias Klose 	doko 
  614	Matthias Klumpp 	mak 
  615	Matthias Urlichs 	smurf 
  616	Matthieu Caneill 	matthieucan 
  617	Mattia Dongili 	malattia 
  618	Mattia Rizzolo 	mattia 
  619	Mattias Ellert 	ellert 
  620	Mattias Nordstrom 	mnordstr 
  621	Mattias Wadenstein 	maswan 
  622	Max Vozeler 	xam 
  623	Maximilian Attems 	maks 
  624	Maximiliano Curia 	maxy 
  625	Mazen Neifer 	mazen 
  626	Mechtilde Stehmann 	mechtilde 
  627	Mehdi Dogguy 	mehdi 
  628	Miah Gregory 	mace 
  629	Micah Anderson 	micah 
  630	Micha Lenk 	micha 
  631	Michael Ablassmeier 	abi 
  632	Michael Banck 	mbanck 
  633	Michael Beattie 	mjb 
  634	Michael Biebl 	biebl 
  635	Michael Bramer 	grisu 
  636	Michael C. Schultheiss 	schultmc 
  637	Michael D. Mattice 	mattice 
  638	Michael Fladischer 	fladi 
  639	Michael Gilbert 	mgilbert 
  640	Michael Hanke 	mih 
  641	Michael Hudson-Doyle 	mwhudson 
  642	Michael Janssen 	jamuraa 
  643	Michael Jeanson 	mjeanson 
  644	Michael Lustfield 	mtecknology 
  645	Michael Meskes 	meskes 
  646	Michael Prokop 	mika 
  647	Michael Robin Crusoe 	crusoe 
  648	Michael Schiansky 	ms 
  649	Michael Schlueter 	schlue 
  650	Michael Schmitz 	schmitz 
  651	Michael Schutte 	michi 
  652	Michael Stapelberg 	stapelberg 
  653	Michael Stone 	mstone 
  654	Michael Tautschnig 	mt 
  655	Michael Tokarev 	mjt 
  656	Michael Vogt 	mvo 
  657	Michal Arbet 	kevko 
  658	Michal Cihar 	nijel 
  659	Miguel Landaeta 	nomadium 
  660	Mikael Djurfeldt 	mdj 
  661	Mike Gabriel 	sunweaver 
  662	Mike Hommey 	glandium 
  663	Mike Markley 	madhack 
  664	Mike Miller 	mtmiller 
  665	Mikhail Gusarov 	dottedmag 
  666	Milan Kupcevic 	milan 
  667	Milan Zamazal 	pdm 
  668	Ming-ting Yao Wei 	mwei 
  669	Miquel van Smoorenburg 	miquels 
  670	Mirco Bauer 	meebey 
  671	Miriam Ruiz 	miriam 
  672	Mo Zhou 	lumin 
  673	Modestas Vainius 	modax 
  674	Mohammed Adnène Trojette 	adn 
  675	Mohammed Sameer 	msameer 
  676	Molly de Blanc 	mollydb 
  677	Moray Allan 	moray 
  678	Moritz Muehlenhoff 	jmm 
  679	Morten Werner Forsbring 	werner 
  680	Muammar El Khatib 	muammar 
  681	Murat Demirten 	murat 
  682	Mutsumi Ishikawa 	ishikawa 
  683	Mònica Ramírez Arceda 	monica 
  684	NIIBE Yutaka 	gniibe 
  685	Nathan Scott 	nathans 
  686	Nathaniel Harrison Handler 	nhandler 
  687	Nattie Mayer-Hutchings 	nattie 
  688	Neil A. Schemenauer 	nas 
  689	Neil L. Roeth 	neil 
  690	Neil McGovern 	neilm 
  691	Neil Williams 	codehelp 
  692	Neutron Soutmun 	neutrons 
  693	Nicholas Breen 	nbreen 
  694	Nicholas D Steeves 	sten 
  695	Nick Morrott 	nickm 
  696	Nick Phillips 	nwp 
  697	Nicolas Bertolissio 	bertol 
  698	Nicolas Boulenguez 	nicolas 
  699	Nicolas Boullis 	nboullis 
  700	Nicolas Dandrimont 	olasd 
  701	Nicolas Mora 	babelouest 
  702	Niels Thykier 	nthykier 
  703	Niko Tyni 	ntyni 
  704	Nilesh Patra 	nilesh 
  705	Nils Boeffel 	lohner 
  706	Noah Meyerhans 	noahm 
  707	Nobuhiro Iwamatsu 	iwamatsu 
  708	Norbert Veber 	nveber 
  709	Noèl Köthe 	noel 
  710	Obey Arthur Liu 	arthurliu 
  711	Ognyan Kulev 	ogi 
  712	Ola Lundqvist 	opal 
  713	Ole Streicher 	olebole 
  714	Olek Wojnar 	olek 
  715	Olivier Sallou 	osallou 
  716	Olly Betts 	olly 
  717	Ondrej Sury 	ondrej 
  718	Ondřej Kobližek 	kobla 
  719	Ondřej Nový 	onovy 
  720	Ondřej Čertík 	certik 
  721	Osamu Aoki 	osamu 
  722	Otto Kekäläinen 	otto 
  723	Ove Kåven 	ovek 
  724	Pablo Lorenzzoni 	spectra 
  725	Paride Legovini 	paride 
  726	Pascal Hakim 	pasc 
  727	Patrick Franz 	deltaone 
  728	Patrick Matthäi 	pmatthaei 
  729	Patrick Ouellette 	pouelle 
  730	Patryk Cisek 	patryk 
  731	Patty Langasek 	harmoney 
  732	Paul Brossier 	piem 
  733	Paul Cannon 	pik 
  734	Paul Cupis 	cupis 
  735	Paul D. Bame 	bame 
  736	Paul Gevers 	elbrus 
  737	Paul Martin 	pm 
  738	Paul Richards Tagliamonte 	paultag 
  739	Paul Slootman 	paul 
  740	Paul Waite 	paulwaite 
  741	Paul Wise 	pabs 
  742	Paul van Tilburg 	paulvt 
  743	Paulo Henrique de Lima Santana 	phls 
  744	Per Andersson 	avtobiff 
  745	Peter De Schrijver 	p2 
  746	Peter Eisentraut 	petere 
  747	Peter Kelemen 	fuji 
  748	Peter Michael Green 	plugwash 
  749	Peter Palfrader 	weasel 
  750	Peter Pentchev 	roam 
  751	Peter S. Galbraith 	psg 
  752	Peter Van Eynde 	pvaneynd 
  753	Petr Cech 	cech 
  754	Petter Reinholdtsen 	pere 
  755	Phil Brooke 	pjb 
  756	Philip Hands 	philh 
  757	Philipp Huebner 	debalance 
  758	Philipp Hug 	hug 
  759	Philipp Kern 	pkern 
  760	Philipp Matthias Hahn 	pmhahn 
  761	Philippe Thierry 	philou 
  762	Pierre Chifflier 	pollux 
  763	Pierre Gruet 	pgt 
  764	Pierre-Elliott Bécue 	peb 
  765	Pino Toscano 	pino 
  766	Piotr Ożarowski 	piotr 
  767	Piotr Roszatycki 	dexter 
  768	Prach Pongpanich 	prach 
  769	Praveen Arimbrathodiyil 	praveen 
  770	Punit Agrawal 	punit 
  771	RISKO Gergely 	risko 
  772	Radovan Garabik 	garabik 
  773	Rafael Laboissiere 	rafael 
  774	Ralf Treinen 	treinen 
  775	Raphael Bossek 	bossekr 
  776	Raphael Geissert 	geissert 
  777	Raphaël Hertzog 	hertzog 
  778	Recai Oktas 	roktas 
  779	Reinhard Tartler 	siretart 
  780	Remi Vanicat 	vanicat 
  781	Rene Engelhard 	rene 
  782	Rene Mayorga 	rmayorga 
  783	Rene Mayrhofer 	rmayr 
  784	Rene Weber 	rweber 
  785	Rhonda D'Vine 	rhonda 
  786	Ricardo Mones Lastra 	mones 
  787	Riccardo Setti 	giskard 
  788	Richard A. Nelson 	cowboy 
  789	Richard Hecker 	hecker 
  790	Richard Kreckel 	kreckel 
  791	Richard Laager 	rlaager 
  792	Richard Michael Hartmann 	richih 
  793	Ritesh Raj Sarraf 	rrs 
  794	Rob Bradford 	robster 
  795	Rob Browning 	rlb 
  796	Robert Alan Larson 	blarson 
  797	Robert Edmonds 	edmonds 
  798	Robert Haist 	rha 
  799	Robert Luberda 	robert 
  800	Robert Millan 	rmh 
  801	Robert Woodcock 	rcw 
  802	Roberto C. Sanchez 	roberto 
  803	Roberto Lumbreras 	rover 
  804	Robie Basak 	rbasak 
  805	Roger Shimizu 	rosh 
  806	Roland Dreier 	rbd 
  807	Roland Fehrenbacher 	rfehren 
  808	Roland Marcus Rutschmann 	rudi 
  809	Roland Mas 	lolando 
  810	Roland Rosenfeld 	roland 
  811	Romain Francoise 	rfrancoise 
  812	Ron Lee 	ron 
  813	Ross Burton 	ross 
  814	Ross Gammon 	rossgammon 
  815	Ross Peachey 	rcp 
  816	Ross Vandegrift 	rvandegrift 
  817	Ruben Undheim 	rubund 
  818	Russ Allbery 	rra 
  819	Russell Coker 	etbe 
  820	Russell Stuart 	ras 
  821	Ryan Kavanagh 	rak 
  822	Ryan M. Golbeck 	rmgolbeck 
  823	SZ Lin 	szlin 
  824	Salvador Abreu 	spa 
  825	Salvatore Bonaccorso 	carnil 
  826	Sam Clegg 	samo 
  827	Sam Hartman 	hartmans 
  828	Sam Johnston 	samj 
  829	Samuel Henrique 	samueloph 
  830	Samuel Hocevar 	sho 
  831	Samuel Mimram 	smimram 
  832	Samuel Thibault 	sthibault 
  833	Sandro Knauß 	hefee 
  834	Sandro Tosi 	morph 
  835	Santiago Garcia Mantinan 	manty 
  836	Santiago Ruano Rincón 	santiago 
  837	Santiago Vila 	sanvila 
  838	Sascha Steinbiss 	satta 
  839	Scarlett Moore 	sgmoore 
  840	Scott James Remnant 	keybuk 
  841	Scott Kitterman 	kitterman 
  842	Scott Sheridan Howard 	showard 
  843	Scott Talbert 	swt2c 
  844	Sean Whitton 	spwhitton 
  845	Sebastiaan Couwenberg 	sebastic 
  846	Sebastian Andrzej Siewior 	bigeasy 
  847	Sebastian Dröge 	slomo 
  848	Sebastian Harl 	tokkee 
  849	Sebastian Ramacher 	sramacher 
  850	Sebastian Reichel 	sre 
  851	Sebastian Rittau 	srittau 
  852	Sebastien Bacher 	seb128 
  853	Sebastien Badia 	sbadia 
  854	Sebastien Delafond 	seb 
  855	Serafeim Zanikolas 	sez 
  856	Sergei Golovan 	sgolovan 
  857	Sergio Durigan Junior 	sergiodj 
  858	Sergio Talens-Oliag 	sto 
  859	Shachar Shemesh 	shachar 
  860	Shane Wegner 	shane 
  861	Shaun Jackman 	sjackman 
  862	Shengjing Zhu 	zhsj 
  863	Shigeo Noshiro 	noshiro 
  864	Shih-Yuan Lee 	fourdollars 
  865	Shugo Maeda 	shugo 
  866	Siegfried-Angel Gevatter Pujals 	sgevatter 
  867	Simon Horman 	horms 
  868	Simon Josefsson 	jas 
  869	Simon Kelley 	srk 
  870	Simon McVittie 	smcv 
  871	Simon Quigley 	tsimonq2 
  872	Simon Richter 	sjr 
  873	Sjoerd Simons 	sjoerd 
  874	Sophie Brun 	sophieb 
  875	Sruthi Chandran 	srud 
  876	Stefan Alfredsson 	alfs 
  877	Stefan Fritsch 	sf 
  878	Stefan Hornburg 	racke 
  879	Stefan Pfetzing 	dreamind 
  880	Stefano Rivera 	stefanor 
  881	Stefano Zacchiroli 	zack 
  882	Steffen Möller 	moeller 
  883	Stein Magnus Jodal 	jodal 
  884	Steinar H. Gunderson 	sesse 
  885	Stephan Lachnit 	stephanlachnit 
  886	Stephan Suerken 	absurd 
  887	Stephen Frost 	sfrost 
  888	Stephen Gelman 	ssgelm 
  889	Stephen Gran 	sgran 
  890	Stephen Kitt 	skitt 
  891	Stephen Leake 	stephe 
  892	Stephen R. Marenka 	smarenka 
  893	Steve Kemp 	skx 
  894	Steve Kostecke 	steve 
  895	Steve Kowalik 	stevenk 
  896	Steve Langasek 	vorlon 
  897	Steve McIntyre 	93sam 
  898	Steven Chamberlain 	stevenc 
  899	Steven Michael Robbins 	smr 
  900	Stig Sandbeck Mathisen 	ssm 
  901	Stuart Prescott 	stuart 
  902	Stuart Teasdale 	sdt 
  903	Stéphane Blondon 	sblondon 
  904	Stéphane Glondu 	glondu 
  905	Sudip Mukherjee 	sudip 
  906	Sune Vuorela 	sune 
  907	Sven Bartscher 	kritzefitz 
  908	Sven Eckelmann 	ecsv 
  909	Sven Hoexter 	hoexter 
  910	Sven Mueller 	sven 
  911	Sylvain Beucler 	beuc 
  912	Sylvestre Ledru 	sylvestre 
  913	Sébastien Villemot 	sebastien 
  914	Takaki Taniguchi 	takaki 
  915	Takatsugu Nokubi 	knok 
  916	Takeshi YAEGASHI 	yaegashi 
  917	Taku Yasui 	tach 
  918	Takuo KITAME 	kitame 
  919	Tamas Szerb 	toma 
  920	Tanguy Ortolo 	tanguy 
  921	Taowa 	taowa 
  922	Tatsuya Kinoshita 	tats 
  923	Teemu Hukkanen 	tjhukkan 
  924	Teruyuki Morimura 	morimura 
  925	Teus Benschop 	teusbenschop 
  926	Thaddeus H. Black 	thb 
  927	Thadeu Cascardo 	cascardo 
  928	Theodore Y. Ts'o 	tytso 
  929	Theppitak Karoonboonyanan 	thep 
  930	Thiago Andrade Marques 	andrade 
  931	Thibaut Jean-Claude Paumard 	thibaut 
  932	Thierry Randrianiriana 	thierry 
  933	Thijs Kinkhorst 	thijs 
  934	Thom May 	thom 
  935	Thomas Bushnell 	tb 
  936	Thomas Girard 	tgg 
  937	Thomas Goirand 	zigo 
  938	Thomas Koch 	thk 
  939	Thomas Lange 	lange 
  940	Thomas Preud'homme 	robotux 
  941	Thomas Schmidt 	tschmidt 
  942	Thomas Vincent 	tvincent 
  943	Thomas Wana 	greuff 
  944	Thomas Weber 	tweber 
  945	Thorsten Alteholz 	alteholz 
  946	Thorsten Glaser 	tg 
  947	Thorvald Natvig 	thorvald 
  948	Tiago Bortoletto Vaz 	tiago 
  949	Tianon Gravi 	tianon 
  950	Tim Cutts 	tjrc1 
  951	Tim Retout 	diocles 
  952	Tim Riker 	timr 
  953	Timo Aaltonen 	tjaalton 
  954	Timo Juhani Lindfors 	lindi 
  955	Timo Jyrinki 	timo 
  956	Timo Röhling 	roehling 
  957	Timo Weingärtner 	tiwe 
  958	Timothy Martin Potter 	tpot 
  959	Tobias Frost 	tobi 
  960	Tobias Grimm 	etobi 
  961	Tobias Hansen 	thansen 
  962	Tobias Quathamer 	toddy 
  963	Tollef Fog Heen 	tfheen 
  964	Tomas Fasth 	tomfa 
  965	Tomas Pospisek 	tpo 
  966	Tomasz Buchert 	tomasz 
  967	Tomasz Rybak 	serpent 
  968	Tommi Vainikainen 	tvainika 
  969	Toni Mueller 	toni 
  970	Tony Mancill 	tmancill 
  971	Torsten Landschoff 	torsten 
  972	Torsten Marek 	shlomme 
  973	Torsten Werner 	twerner 
  974	Tristan Seligmann 	mithrandi 
  975	Troy Heber 	troyh 
  976	Tzafrir Cohen 	tzafrir 
  977	Tássia Camões Araújo 	tassia 
  978	Ulises Vitulli 	dererk 
  979	Ulrich Dangel 	uli 
  980	Unit 193 	unit193 
  981	Utkarsh Gupta 	utkarsh 
  982	Uwe Hermann 	uwe 
  983	Uwe Kleine-König 	ukleinek 
  984	Uwe Steinmann 	steinm 
  985	Vagrant Cascadian 	vagrant 
  986	Valentin Vidic 	vvidic 
  987	Varun Hiremath 	varun 
  988	Vasudev Sathish Kamath 	vasudev 
  989	Victor Seva 	vseva 
  990	Vincent Bernat 	bernat 
  991	Vincent Cheng 	vcheng 
  992	Vincent Danjean 	vdanjean 
  993	Vincent Legout 	vlegout 
  994	Vincent Prat 	vivi 
  995	Vincent Sanders 	vince 
  996	Wartan Hachaturow 	wart 
  997	Werner Heuser 	wehe 
  998	Wesley W. Terpstra 	terpstra 
  999	Will Newton 	will 
 1000	Willi Mann 	willi 
 1001	William Blough 	bblough 
 1002	Wilmer van der Gaast 	lintux 
 1003	Wookey 	wookey 
 1004	Wouter Verhelst 	wouter 
 1005	Xavier Lüthi 	xluthi 
 1006	Xavier Roche 	xavier 
 1007	Ximin Luo 	infinity0 
 1008	Yadd 	yadd 
 1009	Yann Dirson 	dirson 
 1010	Yaroslav Halchenko 	yoh 
 1011	Yasuhiro Araki 	ar 
 1012	Ying-Chun Liu 	paulliu 
 1013	Yukiharu Yabuki 	yyabuki 
 1014	YunQiang Su 	syq 
 1015	Yuuma Oohara 	oohara 
 1016	Yves-Alexis Perez 	corsac 
 1017	Zed Pobre 	zed 
 1018	Zlatan Todoric 	zlatan 
 1019	intrigeri 	intrigeri 
 1020	nick black 	dank 
 1021	nicoo 	nicoo 
 1022	Étienne Mollier 	emollier 
 1023	Øystein Gisnås 	shaka 
