<define-tag pagetitle>DLA-1135-1 db</define-tag>
<define-tag report_date>2017-10-18</define-tag>
<define-tag secrefs>CVE-2017-10140 Bug#872436</define-tag>
<define-tag packages>db</define-tag>
<define-tag isvulnerable>yes</define-tag>
<define-tag fixed>yes</define-tag>
<define-tag fixed-section>no</define-tag>

#use wml::debian::security

