<define-tag pagetitle>DLA-915-1 botan1.10</define-tag>
<define-tag report_date>2017-4-25</define-tag>
<define-tag secrefs>CVE-2017-2801 Bug#860072</define-tag>
<define-tag packages>botan1.10</define-tag>
<define-tag isvulnerable>yes</define-tag>
<define-tag fixed>yes</define-tag>
<define-tag fixed-section>no</define-tag>

#use wml::debian::security

