<define-tag pagetitle>DLA-1121-1 curl</define-tag>
<define-tag report_date>2017-10-5</define-tag>
<define-tag secrefs>CVE-2017-1000254 Bug##877671</define-tag>
<define-tag packages>curl</define-tag>
<define-tag isvulnerable>yes</define-tag>
<define-tag fixed>yes</define-tag>
<define-tag fixed-section>no</define-tag>

#use wml::debian::security

