<define-tag pagetitle>DLA-1039-1 rkhunter</define-tag>
<define-tag report_date>2017-7-25</define-tag>
<define-tag secrefs>CVE-2017-7480</define-tag>
<define-tag packages>rkhunter</define-tag>
<define-tag isvulnerable>yes</define-tag>
<define-tag fixed>yes</define-tag>
<define-tag fixed-section>no</define-tag>

#use wml::debian::security

