<define-tag pagetitle>DLA-684-2 libx11</define-tag>
<define-tag report_date>2017-1-14</define-tag>
<define-tag packages>libx11</define-tag>
<define-tag isvulnerable>yes</define-tag>
<define-tag fixed>yes</define-tag>
<define-tag fixed-section>no</define-tag>

#use wml::debian::security

