<define-tag pagetitle>DLA-2147-1 gdal</define-tag>
<define-tag report_date>2020-03-19</define-tag>
<define-tag secrefs>CVE-2019-17546</define-tag>
<define-tag packages>gdal</define-tag>
<define-tag isvulnerable>yes</define-tag>
<define-tag fixed>yes</define-tag>
<define-tag fixed-section>no</define-tag>

#use wml::debian::security

