<define-tag pagetitle>DLA-2340-1 sqlite3</define-tag>
<define-tag report_date>2020-08-22</define-tag>
<define-tag secrefs>CVE-2018-8740 CVE-2018-20346 CVE-2018-20506 CVE-2019-5827 CVE-2019-9936 CVE-2019-9937 CVE-2019-16168 CVE-2019-20218 CVE-2020-11655 CVE-2020-13434 CVE-2020-13630 CVE-2020-13632 CVE-2020-13871</define-tag>
<define-tag packages>sqlite3</define-tag>
<define-tag isvulnerable>yes</define-tag>
<define-tag fixed>yes</define-tag>
<define-tag fixed-section>no</define-tag>

#use wml::debian::security

