<define-tag pagetitle>DLA-2101-1 libemail-address-list-perl</define-tag>
<define-tag report_date>2020-2-12</define-tag>
<define-tag secrefs>CVE-2018-18898</define-tag>
<define-tag packages>libemail-address-list-perl</define-tag>
<define-tag isvulnerable>yes</define-tag>
<define-tag fixed>yes</define-tag>
<define-tag fixed-section>no</define-tag>

#use wml::debian::security

