<define-tag pagetitle>DLA-1282-1 graphicsmagick</define-tag>
<define-tag report_date>2018-2-14</define-tag>
<define-tag secrefs>CVE-2018-6799</define-tag>
<define-tag packages>graphicsmagick</define-tag>
<define-tag isvulnerable>yes</define-tag>
<define-tag fixed>yes</define-tag>
<define-tag fixed-section>no</define-tag>

#use wml::debian::security

