<define-tag pagetitle>DLA-1579-1 openjpeg2</define-tag>
<define-tag report_date>2018-11-20</define-tag>
<define-tag secrefs>CVE-2017-17480 CVE-2018-18088</define-tag>
<define-tag packages>openjpeg2</define-tag>
<define-tag isvulnerable>yes</define-tag>
<define-tag fixed>yes</define-tag>
<define-tag fixed-section>no</define-tag>

#use wml::debian::security

