<define-tag pagetitle>DLA-1457-1 ant</define-tag>
<define-tag report_date>2018-8-5</define-tag>
<define-tag secrefs>TEMP-0904191-9063D5 Bug#904191</define-tag>
<define-tag packages>ant</define-tag>
<define-tag isvulnerable>yes</define-tag>
<define-tag fixed>yes</define-tag>
<define-tag fixed-section>no</define-tag>

#use wml::debian::security

