<define-tag pagetitle>DSA-5107-1 php-twig</define-tag>
<define-tag report_date>2022-3-24</define-tag>
<define-tag secrefs>CVE-2022-23614</define-tag>
<define-tag packages>php-twig</define-tag>
<define-tag isvulnerable>yes</define-tag>
<define-tag fixed>yes</define-tag>
<define-tag fixed-section>no</define-tag>

#use wml::debian::security



</dl>
