<define-tag pagetitle>DLA-115-2 gosa</define-tag>
<define-tag report_date>2015-03-11</define-tag>
<define-tag packages>gosa</define-tag>
<define-tag isvulnerable>yes</define-tag>
<define-tag fixed>yes</define-tag>
<define-tag fixed-section>no</define-tag>

#use wml::debian::security

