<define-tag pagetitle>DLA-1991-1 libssh2</define-tag>
<define-tag report_date>2019-11-13</define-tag>
<define-tag secrefs>CVE-2019-17498 Bug#943562</define-tag>
<define-tag packages>libssh2</define-tag>
<define-tag isvulnerable>yes</define-tag>
<define-tag fixed>yes</define-tag>
<define-tag fixed-section>no</define-tag>

#use wml::debian::security

