<define-tag pagetitle>DLA-1773-1 signing-party</define-tag>
<define-tag report_date>2019-5-1</define-tag>
<define-tag secrefs>CVE-2019-11627 Bug#928256</define-tag>
<define-tag packages>signing-party</define-tag>
<define-tag isvulnerable>yes</define-tag>
<define-tag fixed>yes</define-tag>
<define-tag fixed-section>no</define-tag>

#use wml::debian::security

