<define-tag pagetitle>DLA-598-1 suckless-tools</define-tag>
<define-tag report_date>2016-8-20</define-tag>
<define-tag secrefs>CVE-2016-6866</define-tag>
<define-tag packages>suckless-tools</define-tag>
<define-tag isvulnerable>yes</define-tag>
<define-tag fixed>yes</define-tag>
<define-tag fixed-section>no</define-tag>

#use wml::debian::security

