<define-tag pagetitle>DLA-681-1 tzdata</define-tag>
<define-tag report_date>2016-10-26</define-tag>
<define-tag packages>tzdata</define-tag>
<define-tag isvulnerable>yes</define-tag>
<define-tag fixed>yes</define-tag>
<define-tag fixed-section>no</define-tag>

#use wml::debian::security

